[
	{
		"type": "production",
		"major": "0",
		"minor": "0",
		"revision": "1",
		"short_desc": "new version",
		"importance": "routine",
		"released":"8-Jun-2016 00:00:00",
		"issues":
				{
				"issue":
					[
						{}
					]
				}
	},
	{
		"type": "beta",
		"major": "0",
		"minor": "0",
		"revision": "1",
		"short_desc": "new version",
		"importance": "routine",
		"released":"8-Jun-2016 00:00:00",
		"issues":
			{
				"issue":
					[
						{}
					]
			}
	},
	{
		"type": "alpha",
		"major": "0",
		"minor": "0",
		"revision": "",
		"short_desc": "new version",
		"importance": "routine",
		"released":"8-Jun-2016 00:00:00",
		"issues":
			{
				"issue":
					[
						{}
					]
			}
	}
]