Pi,,Richness,S,Simp Conc
0.061180171,,0.061180171,-0.170933246,0.003743013
0.066946233,,0.066946233,-0.181013609,0.004481798
0.01295492,,0.01295492,-0.056305705,0.00016783
0.02343867,,0.02343867,-0.087973955,0.000549371
0.025086117,,0.025086117,-0.092453395,0.000629313
0.00037442,,0.00037442,-0.002954221,1.4019E-07
0.066197394,,0.066197394,-0.179733483,0.004382095
0.013628875,,0.013628875,-0.058543713,0.000185746
0.033323349,,0.033323349,-0.11334927,0.001110446
0.061255055,,0.061255055,-0.171067537,0.003752182
0.013479107,,0.013479107,-0.058049318,0.000181686
0.070989966,,0.070989966,-0.187783845,0.005039575
0.07450951,,0.07450951,-0.19348842,0.005551667
0.02553542,,0.02553542,-0.093655973,0.000652058
0.024187509,,0.024187509,-0.090023949,0.000585036
0.024112625,,0.024112625,-0.089820005,0.000581419
0.008611652,,0.008611652,-0.040945297,7.41605E-05
0.072936948,,0.072936948,-0.190960595,0.005319798
0.06155459,,0.06155459,-0.171603786,0.003788968
0.072337876,,0.072337876,-0.189988734,0.005232768
0.055339224,,0.055339224,-0.16016684,0.00306243
0.06365134,,0.06365134,-0.175317108,0.004051493
0.046727572,,0.046727572,-0.14314622,0.002183466
0.021641456,,0.021641456,-0.082954828,0.000468353

,,1,2.982233054,0.055774812
,,,19.73182972,17.92924031
